{
    "data": [
      {
        "id": 5,
        "title": "title",
        "content": "content",
        "contentState": 1,
        "contentType": 1,
        "contentCategoryId": 3,
        "contentCategory": {
          "id": 3,
          "title": "event cat 02",
          "color": "#AB7BEA",
          "contentType": 2,
          "createdBy": "f77b1c33-d2a3-4b5d-9751-fff409e2908e",
          "createdByUser": null,
          "lastModifiedBy": "f77b1c33-d2a3-4b5d-9751-fff409e2908e",
          "lastModifiedByUser": null
        },
        "contentTags": [
          {
            "id": 1,
            "title": "art tag 1"
          },
          {
            "id": 2,
            "title": "art tag 2"
          }
        ],
        "createdBy": "f77b1c33-d2a3-4b5d-9751-fff409e2908e",
        "createdByUser": {
          "id": "f77b1c33-d2a3-4b5d-9751-fff409e2908e",
          "userName": "abdelkhalek.boukri@intelifox.com",
          "firstName": "Abdelkhalek",
          "lastName": "Boukri",
          "email": "abdelkhalek.boukri@intelifox.com",
          "isActive": true,
          "emailConfirmed": true,
          "phoneNumber": null,
          "imageUrl": null,
          "tenantId": null
        },
        "lastModifiedBy": "f77b1c33-d2a3-4b5d-9751-fff409e2908e",
        "lastModifiedByUser": {
          "id": "f77b1c33-d2a3-4b5d-9751-fff409e2908e",
          "userName": "abdelkhalek.boukri@intelifox.com",
          "firstName": "Abdelkhalek",
          "lastName": "Boukri",
          "email": "abdelkhalek.boukri@intelifox.com",
          "isActive": true,
          "emailConfirmed": true,
          "phoneNumber": null,
          "imageUrl": null,
          "tenantId": null
        }
      },
      {
        "id": 15,
        "title": "Lorem ipsum dolor sit amet consectetur",
        "content": "Lorem ipsum dolor sit amet consectetur adipiscing elit accumsan montes, auctor molestie mi facilisis mauris phasellus nunc imperdiet euismod faucibus, sagittis potenti litora ridiculus curabitur eu dui neque. Fusce",
        "contentState": 1,
        "contentType": 1,
        "contentCategoryId": 2,
        "contentCategory": {
          "id": 2,
          "title": "event cat",
          "color": "#AB7BEA",
          "contentType": 2,
          "createdBy": "f77b1c33-d2a3-4b5d-9751-fff409e2908e",
          "createdByUser": null,
          "lastModifiedBy": "f77b1c33-d2a3-4b5d-9751-fff409e2908e",
          "lastModifiedByUser": null
        },
        "contentTags": [
          {
            "id": 12,
            "title": "string 3"
          }
        ],
        "createdBy": "f77b1c33-d2a3-4b5d-9751-fff409e2908e",
        "createdByUser": {
          "id": "f77b1c33-d2a3-4b5d-9751-fff409e2908e",
          "userName": "abdelkhalek.boukri@intelifox.com",
          "firstName": "Abdelkhalek",
          "lastName": "Boukri",
          "email": "abdelkhalek.boukri@intelifox.com",
          "isActive": true,
          "emailConfirmed": true,
          "phoneNumber": null,
          "imageUrl": null,
          "tenantId": null
        },
        "lastModifiedBy": "f77b1c33-d2a3-4b5d-9751-fff409e2908e",
        "lastModifiedByUser": {
          "id": "f77b1c33-d2a3-4b5d-9751-fff409e2908e",
          "userName": "abdelkhalek.boukri@intelifox.com",
          "firstName": "Abdelkhalek",
          "lastName": "Boukri",
          "email": "abdelkhalek.boukri@intelifox.com",
          "isActive": true,
          "emailConfirmed": true,
          "phoneNumber": null,
          "imageUrl": null,
          "tenantId": null
        }
      },
      {
        "id": 16,
        "title": "Lorem ipsum dolor sit amet consectetur",
        "content": "Lorem ipsum dolor sit amet consectetur adipiscing elit accumsan montes, auctor molestie mi facilisis mauris phasellus nunc imperdiet euismod faucibus, sagittis potenti litora ridiculus curabitur eu dui neque. Fusce",
        "contentState": 1,
        "contentType": 1,
        "contentCategoryId": 2,
        "contentCategory": {
          "id": 2,
          "title": "event cat",
          "color": "#AB7BEA",
          "contentType": 2,
          "createdBy": "f77b1c33-d2a3-4b5d-9751-fff409e2908e",
          "createdByUser": null,
          "lastModifiedBy": "f77b1c33-d2a3-4b5d-9751-fff409e2908e",
          "lastModifiedByUser": null
        },
        "contentTags": [
          {
            "id": 13,
            "title": "string 3"
          }
        ],
        "createdBy": "f77b1c33-d2a3-4b5d-9751-fff409e2908e",
        "createdByUser": {
          "id": "f77b1c33-d2a3-4b5d-9751-fff409e2908e",
          "userName": "abdelkhalek.boukri@intelifox.com",
          "firstName": "Abdelkhalek",
          "lastName": "Boukri",
          "email": "abdelkhalek.boukri@intelifox.com",
          "isActive": true,
          "emailConfirmed": true,
          "phoneNumber": null,
          "imageUrl": null,
          "tenantId": null
        },
        "lastModifiedBy": "f77b1c33-d2a3-4b5d-9751-fff409e2908e",
        "lastModifiedByUser": {
          "id": "f77b1c33-d2a3-4b5d-9751-fff409e2908e",
          "userName": "abdelkhalek.boukri@intelifox.com",
          "firstName": "Abdelkhalek",
          "lastName": "Boukri",
          "email": "abdelkhalek.boukri@intelifox.com",
          "isActive": true,
          "emailConfirmed": true,
          "phoneNumber": null,
          "imageUrl": null,
          "tenantId": null
        }
      },
      {
        "id": 17,
        "title": "Lorem ipsum dolor sit amet consectetur",
        "content": "Lorem ipsum dolor sit amet consectetur adipiscing elit accumsan montes, auctor molestie mi facilisis mauris phasellus nunc imperdiet euismod faucibus, sagittis potenti litora ridiculus curabitur eu dui neque. Fusce",
        "contentState": 1,
        "contentType": 1,
        "contentCategoryId": 2,
        "contentCategory": {
          "id": 2,
          "title": "event cat",
          "color": "#AB7BEA",
          "contentType": 2,
          "createdBy": "f77b1c33-d2a3-4b5d-9751-fff409e2908e",
          "createdByUser": null,
          "lastModifiedBy": "f77b1c33-d2a3-4b5d-9751-fff409e2908e",
          "lastModifiedByUser": null
        },
        "contentTags": [
          {
            "id": 14,
            "title": "string 3"
          }
        ],
        "createdBy": "f77b1c33-d2a3-4b5d-9751-fff409e2908e",
        "createdByUser": {
          "id": "f77b1c33-d2a3-4b5d-9751-fff409e2908e",
          "userName": "abdelkhalek.boukri@intelifox.com",
          "firstName": "Abdelkhalek",
          "lastName": "Boukri",
          "email": "abdelkhalek.boukri@intelifox.com",
          "isActive": true,
          "emailConfirmed": true,
          "phoneNumber": null,
          "imageUrl": null,
          "tenantId": null
        },
        "lastModifiedBy": "f77b1c33-d2a3-4b5d-9751-fff409e2908e",
        "lastModifiedByUser": {
          "id": "f77b1c33-d2a3-4b5d-9751-fff409e2908e",
          "userName": "abdelkhalek.boukri@intelifox.com",
          "firstName": "Abdelkhalek",
          "lastName": "Boukri",
          "email": "abdelkhalek.boukri@intelifox.com",
          "isActive": true,
          "emailConfirmed": true,
          "phoneNumber": null,
          "imageUrl": null,
          "tenantId": null
        }
      }
      
      
    ],
    "currentPage": 1,
    "totalPages": 3,
    "totalCount": 10,
    "pageSize": 4,
    "hasPreviousPage": false,
    "hasNextPage": true
  }